38 9.892063 56.845380
52 48
53 48
52 49
51 50
50 50
49 50
49 51
49 52
48 53
48 54
47 55
47 56
47 57
47 58
47 59
46 59
45 60
44 61
43 62
42 62
41 63
41 64
40 65
36 58
35 57
34 57
33 57
30 58
29 58
28 59
27 60
26 61
26 62
26 67
25 67
24 67
22 68
23 68
