37 9.746678 59.024666
44 40
45 35
46 32
46 29
46 28
46 27
46 25
41 23
41 22
41 21
42 19
42 18
42 17
42 16
42 15
42 14
42 13
42 12
43 11
42 11
41 11
40 10
39 9
39 8
38 7
36 5
35 4
34 4
33 3
32 3
31 2
30 1
29 1
28 1
27 1
26 1
22 1
